<svg width="24" height="24" viewBox="0 0 24 24" fill="none" xmlns="http://www.w3.org/2000/svg">
<path d="M17.1699 23.106C16.9602 23.106 16.7427 23.0904 16.533 23.0671C15.5155 22.9506 14.5912 22.5778 13.7912 21.9487C13.0766 21.3895 12.4708 20.6438 11.997 19.7273C11.1582 18.1195 10.7931 16.0379 11.0028 14.1583C11.2592 11.7583 12.5252 9.31943 14.2417 7.94466C15.4767 6.95824 16.9058 6.51552 18.3816 6.68639C19.4068 6.8029 20.3389 7.17572 21.1389 7.80485C21.8612 8.36408 22.467 9.10972 22.9408 10.0262C23.7797 11.634 24.1525 13.7156 23.9428 15.5952C23.7331 17.4904 22.902 19.4399 21.7292 20.8225C21.0612 21.6069 20.3078 22.1972 19.4767 22.5856C18.7466 22.9351 17.9699 23.106 17.1699 23.106ZM17.7602 7.5097C16.6961 7.5097 15.6708 7.89029 14.7621 8.61263C13.2165 9.84759 12.0669 12.069 11.8339 14.2593C11.6397 15.9758 11.9815 17.8787 12.7427 19.339C13.1621 20.139 13.6902 20.7992 14.3038 21.2807C14.9796 21.8089 15.7641 22.1273 16.6184 22.2205C17.4806 22.3137 18.3194 22.1817 19.1039 21.8166C19.8185 21.4827 20.4787 20.9623 21.069 20.271C22.1408 19.0127 22.8942 17.2263 23.0884 15.4943C23.2826 13.7777 22.9408 11.8826 22.1797 10.4146C21.7602 9.61458 21.2321 8.96214 20.6107 8.47282C19.9272 7.94466 19.1427 7.62621 18.2806 7.52524C18.1097 7.52524 17.9388 7.5097 17.7602 7.5097ZM16.8048 19.9759C16.7738 19.9759 16.7427 19.9759 16.7116 19.9759C16.401 19.9525 16.1213 19.805 15.9272 19.5564C15.7019 19.2768 15.6087 18.8807 15.6786 18.4613C15.8883 17.1642 16.0903 15.8438 16.2922 14.5777L16.3621 14.1505C16.5408 13.0088 16.7194 11.8437 16.9058 10.6942C16.9058 10.6942 16.9058 10.6864 16.9058 10.6787C16.999 10.0806 17.3485 9.63011 17.8456 9.47477C18.133 9.38157 18.4437 9.40487 18.7078 9.54468C19.166 9.79322 19.3835 10.3291 19.2825 10.9583L18.0942 18.7254C17.9544 19.5564 17.3563 19.9759 16.8048 19.9759ZM17.7291 10.8806C17.5427 12.0534 17.3718 13.1719 17.201 14.2671L17.1311 14.6942C16.9369 15.968 16.7272 17.2807 16.5175 18.5778C16.4942 18.7564 16.5175 18.9195 16.5951 19.0127C16.6417 19.0749 16.7116 19.1059 16.7893 19.1137C16.9757 19.137 17.1932 18.9584 17.2553 18.5622L18.4437 10.7952C18.4825 10.5389 18.4359 10.3369 18.3117 10.267C18.2573 10.2359 18.1796 10.2359 18.1097 10.2592C17.9233 10.3214 17.7835 10.5233 17.7447 10.7952C17.7447 10.834 17.7369 10.8573 17.7291 10.8806Z" fill="#231F10"/>
<path d="M7.08814 16.2865C6.4124 16.2865 5.7289 16.1467 5.0687 15.8748C4.02791 15.4476 3.03373 14.6787 2.18712 13.669C1.41041 12.7447 0.789046 11.6185 0.439527 10.5156C-0.267276 8.34078 -0.111935 5.74658 0.835648 3.90578C1.51915 2.58538 2.58324 1.66886 3.91141 1.24944C5.29395 0.80672 6.74639 0.954294 8.09786 1.6844C9.06874 2.21256 9.97749 3.03587 10.7309 4.06112C11.4377 5.02424 11.9581 6.10386 12.261 7.19902C12.3076 7.37766 12.261 7.57184 12.129 7.70388C11.2358 8.64369 10.5445 9.84759 10.1251 11.1758C9.71341 12.4729 9.58137 13.8632 9.73671 15.1836C9.76001 15.401 9.64351 15.6108 9.4571 15.7117C8.69592 16.0923 7.90368 16.2865 7.08814 16.2865ZM5.48812 1.76984C5.03763 1.76984 4.58714 1.83974 4.14442 1.98731C3.01819 2.3446 2.10945 3.12907 1.52692 4.26307C0.664772 5.92522 0.532732 8.28641 1.1774 10.2825C1.50362 11.3 2.07061 12.3253 2.78518 13.1797C3.54636 14.0962 4.43957 14.7797 5.36385 15.1603C6.55998 15.6574 7.80271 15.6263 8.95224 15.0904C8.8202 13.7156 8.96777 12.2787 9.38719 10.935C9.82215 9.54467 10.5445 8.27864 11.4765 7.26892C11.1969 6.32134 10.7309 5.37376 10.1095 4.52715C9.42603 3.58733 8.60272 2.84946 7.73281 2.37567C7.0027 1.97178 6.24153 1.76984 5.48812 1.76984ZM7.6163 12.069C7.16581 12.069 6.62988 11.7971 6.33473 11.2068C5.39492 9.23399 4.41627 7.23785 3.46092 5.30385L3.35218 5.07861C3.35218 5.07861 3.35218 5.07861 3.35218 5.07084C3.18907 4.72132 3.17354 4.3718 3.30558 4.09219C3.42985 3.85918 3.65509 3.6883 3.93471 3.62617C4.3852 3.52519 5.0454 3.75044 5.41045 4.46501L8.39301 10.5932C8.61825 11.0515 8.54835 11.3777 8.45514 11.5796C8.33864 11.8127 8.11339 11.9835 7.84155 12.0457C7.76387 12.0612 7.69397 12.069 7.6163 12.069ZM4.05121 4.74462L4.15995 4.9621C5.1153 6.90387 6.10172 8.90001 7.03377 10.8728C7.21241 11.2379 7.5231 11.3156 7.67067 11.2923C7.69397 11.2845 7.73281 11.2767 7.74834 11.2457C7.77164 11.2068 7.76387 11.0981 7.6862 10.9427L4.71142 4.81453C4.52501 4.44948 4.24539 4.35627 4.09782 4.38734C4.05898 4.39511 4.02015 4.41064 4.00461 4.44948C3.98131 4.49608 3.98131 4.58928 4.05121 4.74462Z" fill="#231F10"/>
</svg>
