<svg width="24" height="24" viewBox="0 0 24 24" fill="none" xmlns="http://www.w3.org/2000/svg">
<path d="M11.5691 23.9008C7.99707 23.9008 5.09917 20.996 5.09917 17.4309C5.09917 13.859 8.00402 10.9541 11.5691 10.9541C15.141 10.9541 18.0459 13.859 18.0459 17.4309C18.0459 20.996 15.141 23.9008 11.5691 23.9008ZM11.5691 11.6491C8.38623 11.6491 5.79411 14.2412 5.79411 17.4309C5.79411 20.6207 8.38623 23.2059 11.5691 23.2059C14.7588 23.2059 17.3509 20.6138 17.3509 17.4309C17.3509 14.2481 14.7588 11.6491 11.5691 11.6491Z" fill="#231F10"/>
<path fill-rule="evenodd" clip-rule="evenodd" d="M11.5691 11.0533C8.05886 11.0533 5.19835 13.9137 5.19835 17.4309C5.19835 20.9413 8.05191 23.8017 11.5691 23.8017C15.0863 23.8017 17.9467 20.9411 17.9467 17.4309C17.9467 13.9137 15.0863 11.0533 11.5691 11.0533ZM5 17.4309C5 13.8043 7.94917 10.8549 11.5691 10.8549C15.1958 10.8549 18.1451 13.8042 18.1451 17.4309C18.1451 21.0508 15.1957 24 11.5691 24C7.94222 24 5 21.0507 5 17.4309ZM5.69494 17.4309C5.69494 14.1865 8.33138 11.5499 11.5691 11.5499C14.8137 11.5499 17.4501 14.1934 17.4501 17.4309C17.4501 20.6686 14.8135 23.3051 11.5691 23.3051C8.33154 23.3051 5.69494 20.6756 5.69494 17.4309ZM11.5691 11.7482C8.44108 11.7482 5.89329 14.2959 5.89329 17.4309C5.89329 20.5659 8.44093 23.1067 11.5691 23.1067C14.7041 23.1067 17.2518 20.5589 17.2518 17.4309C17.2518 14.3028 14.704 11.7482 11.5691 11.7482Z" fill="#231F10"/>
<path d="M15.3286 9.7102C13.5495 9.7102 12.0971 8.26472 12.0971 6.47873C12.0971 4.69969 13.5495 3.24727 15.3286 3.24727C17.1076 3.24727 18.56 4.69274 18.56 6.47873C18.56 8.26472 17.1076 9.7102 15.3286 9.7102ZM15.3286 3.94915C13.9317 3.94915 12.792 5.08885 12.792 6.48568C12.792 7.88251 13.9317 9.02221 15.3286 9.02221C16.7254 9.02221 17.8651 7.88251 17.8651 6.48568C17.8651 5.0819 16.7254 3.94915 15.3286 3.94915Z" fill="#231F10"/>
<path fill-rule="evenodd" clip-rule="evenodd" d="M15.3286 3.34644C13.6043 3.34644 12.1963 4.75446 12.1963 6.47873C12.1963 8.20981 13.6041 9.61102 15.3286 9.61102C17.053 9.61102 18.4608 8.20981 18.4608 6.47873C18.4608 4.74765 17.053 3.34644 15.3286 3.34644ZM11.9979 6.47873C11.9979 4.64492 13.4947 3.14809 15.3286 3.14809C17.1622 3.14809 18.6592 4.63783 18.6592 6.47873C18.6592 8.31964 17.1622 9.80937 15.3286 9.80937C13.4949 9.80937 11.9979 8.31964 11.9979 6.47873ZM12.6928 6.48568C12.6928 5.03408 13.877 3.84998 15.3286 3.84998C16.78 3.84998 17.9642 5.02696 17.9642 6.48568C17.9642 7.93728 16.7802 9.12138 15.3286 9.12138C13.877 9.12138 12.6928 7.93728 12.6928 6.48568ZM15.3286 4.04833C13.9865 4.04833 12.8912 5.14363 12.8912 6.48568C12.8912 7.82774 13.9865 8.92303 15.3286 8.92303C16.6706 8.92303 17.7659 7.82774 17.7659 6.48568C17.7659 5.13685 16.6708 4.04833 15.3286 4.04833Z" fill="#231F10"/>
<path d="M9.64409 4.2966C8.48354 4.2966 7.54537 3.35844 7.54537 2.19789C7.54537 1.03734 8.49049 0.0991736 9.64409 0.0991736C10.7977 0.0991736 11.7428 1.03734 11.7428 2.19789C11.7428 3.35844 10.8046 4.2966 9.64409 4.2966ZM9.64409 0.794112C8.87271 0.794112 8.24031 1.42651 8.24031 2.19789C8.24031 2.96927 8.87271 3.60166 9.64409 3.60166C10.4155 3.60166 11.0479 2.96927 11.0479 2.19789C11.0479 1.42651 10.4155 0.794112 9.64409 0.794112Z" fill="#231F10"/>
<path fill-rule="evenodd" clip-rule="evenodd" d="M9.64409 0.198347C8.54505 0.198347 7.64455 1.09233 7.64455 2.19789C7.64455 3.30366 8.53831 4.19743 9.64409 4.19743C10.7499 4.19743 11.6436 3.30366 11.6436 2.19789C11.6436 1.09233 10.7431 0.198347 9.64409 0.198347ZM7.4462 2.19789C7.4462 0.982355 8.43593 0 9.64409 0C10.8522 0 11.842 0.982355 11.842 2.19789C11.842 3.41321 10.8594 4.39578 9.64409 4.39578C8.42877 4.39578 7.4462 3.41321 7.4462 2.19789ZM8.14114 2.19789C8.14114 1.37173 8.81794 0.694939 9.64409 0.694939C10.4702 0.694939 11.147 1.37173 11.147 2.19789C11.147 3.02404 10.4702 3.70084 9.64409 3.70084C8.81794 3.70084 8.14114 3.02404 8.14114 2.19789ZM9.64409 0.893286C8.92748 0.893286 8.33948 1.48128 8.33948 2.19789C8.33948 2.9145 8.92748 3.50249 9.64409 3.50249C10.3607 3.50249 10.9487 2.9145 10.9487 2.19789C10.9487 1.48128 10.3607 0.893286 9.64409 0.893286Z" fill="#231F10"/>
</svg>
