<svg width="24" height="24" viewBox="0 0 24 24" fill="none" xmlns="http://www.w3.org/2000/svg">
<path fill-rule="evenodd" clip-rule="evenodd" d="M3 7.29196C3 6.80306 3.41138 6.40674 3.91883 6.40674H8.32924C8.8367 6.40674 9.24807 6.80306 9.24807 7.29196C9.24807 7.78085 8.8367 8.17718 8.32924 8.17718H4.83767V21.2696H19.1623V8.17718H15.6708C15.1633 8.17718 14.7519 7.78085 14.7519 7.29196C14.7519 6.80306 15.1633 6.40674 15.6708 6.40674H20.0812C20.5886 6.40674 21 6.80306 21 7.29196V22.1548C21 22.6437 20.5886 23.04 20.0812 23.04H3.91883C3.41138 23.04 3 22.6437 3 22.1548V7.29196Z" fill="#231F10"/>
<path d="M11.2094 0.201762L8.20419 3.09705C7.93194 3.35934 7.93194 3.79313 8.20419 4.05542C8.48691 4.3278 8.9267 4.3278 9.19895 4.05542L11 2.33035V14.7286C11 15.1019 11.3141 15.4146 11.712 15.4146C12.1099 15.4146 12.4136 15.112 12.4136 14.7286V2.33035L14.2147 4.05542C14.4869 4.31771 14.9372 4.31771 15.2094 4.05542C15.4921 3.78304 15.4817 3.35934 15.2094 3.09705L12.2042 0.201762C12.0681 0.0706168 11.8901 0 11.7016 0C11.5236 0 11.3455 0.0706168 11.2094 0.201762Z" fill="#231F10"/>
</svg>
