<svg width="38" height="24" viewBox="0 0 38 24" fill="none" xmlns="http://www.w3.org/2000/svg">
<path d="M36.0797 0H0.953364C0.426195 0 0 0.42685 0 0.953364V23.0466C0 23.5732 0.426195 24 0.953364 24H36.0797C36.6068 24 37.033 23.5732 37.033 23.0466V0.953364C37.033 0.42685 36.6068 0 36.0797 0ZM2.86731 7.25252H6.81977C7.35284 7.27285 7.78231 7.44267 7.9305 8.01246L8.7901 12.1465C7.94558 9.9841 5.91034 8.1849 2.83452 7.44004L2.86731 7.25252ZM7.64986 16.6813L5.36677 8.88124C7.00795 9.93164 8.40587 11.5984 8.89829 12.7583L9.16449 13.7215L11.6613 7.34235H14.3628L10.348 16.6793L7.64986 16.6813ZM16.3482 16.6878H13.7989L15.3928 7.33251H17.9434L16.3482 16.6878ZM20.7845 16.8281C19.6417 16.8163 18.5408 16.5901 17.9441 16.3285L18.3028 14.2349L18.6313 14.3837C19.4686 14.7332 20.0108 14.8748 21.0317 14.8748C21.7641 14.8748 22.549 14.5883 22.5562 13.9615C22.5608 13.5517 22.2277 13.2592 21.235 12.8003C20.2672 12.3531 18.986 11.603 19.0017 10.2595C19.0155 8.44128 20.7911 7.17253 23.3109 7.17253C24.2983 7.17253 25.0897 7.37579 25.5946 7.56528L25.2504 9.59331L25.0202 9.48512C24.5508 9.29629 23.9469 9.11401 23.1122 9.12712C22.1143 9.12712 21.6513 9.54282 21.6513 9.93164C21.6461 10.3696 22.1916 10.6581 23.0834 11.0922C24.5541 11.7597 25.234 12.5695 25.2248 13.6336C25.2051 15.5745 23.4656 16.8281 20.7845 16.8281ZM31.8328 16.6917C31.8328 16.6917 31.6 15.6164 31.5227 15.2899C31.1515 15.2899 28.5498 15.286 28.2574 15.286C28.1583 15.5384 27.7217 16.6917 27.7217 16.6917H25.0445L28.8298 8.11868C29.0986 7.50955 29.5543 7.34235 30.1654 7.34235H32.1351L34.1985 16.6911L31.8328 16.6917Z" fill="#231F10"/>
<path d="M30.5167 10.6719L30.3449 9.86542C30.2151 10.2175 29.9915 10.7834 30.0059 10.7585C30.0059 10.7585 29.2001 12.835 28.9902 13.3733H31.1074C31.0052 12.9045 30.5167 10.6719 30.5167 10.6719Z" fill="#231F10"/>
</svg>
